Allied Vision Technologies-02-2622A-08408
Category: 'Root'
    Category: 'Info'
        Integer: 'FirmwareVerMajor'
        Integer: 'FirmwareVerMinor'
        Integer: 'FirmwareVerBuild'
        Enumeration: 'SensorType'
            EnumEntry: 'Bayer'
            EnumEntry: 'Mono'
        Integer: 'SensorBits'
        StringReg: 'DeviceVendorName'
        StringReg: 'DeviceModelName'
        StringReg: 'DeviceFirmwareVersion'
        StringReg: 'DeviceID'
        StringReg: 'DevicePartNumber'
        Enumeration: 'DeviceScanType'
            EnumEntry: 'Areascan'
    Category: 'DeviceStatus'
        Enumeration: 'DeviceTemperatureSelector'
            EnumEntry: 'Main'
            EnumEntry: 'Sensor'
        Float: 'DeviceTemperature'
    Category: 'GigE'
        Integer: 'StreamBytesPerSecond'
        Enumeration: 'BandwidthControlMode'
            EnumEntry: 'Both'
            EnumEntry: 'SCPD'
            EnumEntry: 'StreamBytesPerSecond'
        Category: 'StreamHold'
            Enumeration: 'StreamHoldEnable'
                EnumEntry: 'On'
                EnumEntry: 'Off'
            Integer: 'StreamHoldCapacity'
        Category: 'Timestamp'
            Integer: 'GevTimestampTickFrequency'
            Command: 'GevTimestampControlLatch'
            Command: 'GevTimestampControlReset'
            Integer: 'GevTimestampValue'
        Category: 'PTP'
            Enumeration: 'PtpMode'
                EnumEntry: 'Auto'
                EnumEntry: 'Master'
                EnumEntry: 'Slave'
                EnumEntry: 'Off'
            Enumeration: 'PtpStatus'
                EnumEntry: 'Syncing'
                EnumEntry: 'Error'
                EnumEntry: 'Master'
                EnumEntry: 'Slave'
                EnumEntry: 'Off'
            Integer: 'PtpAcquisitionGateTime'
        Integer: 'GevSCPSPacketSize'
        Boolean: 'ChunkModeActive'
        Integer: 'PayloadSize'
        Integer: 'NonImagePayloadSize'
        Boolean: 'StreamFrameRateConstrain'
    Category: 'Acquisition'
        Category: 'Trigger'
            Enumeration: 'TriggerSelector'
                EnumEntry: 'AcquisitionRecord'
                EnumEntry: 'AcquisitionEnd'
                EnumEntry: 'AcquisitionStart'
                EnumEntry: 'FrameStart'
            Enumeration: 'TriggerMode'
                EnumEntry: 'On'
                EnumEntry: 'Off'
            Command: 'TriggerSoftware'
            Enumeration: 'TriggerSource'
                EnumEntry: 'Software'
                EnumEntry: 'FixedRate'
                EnumEntry: 'Line2'
                EnumEntry: 'Line1'
                EnumEntry: 'Freerun'
            Enumeration: 'TriggerActivation'
                EnumEntry: 'LevelLow'
                EnumEntry: 'LevelHigh'
                EnumEntry: 'AnyEdge'
                EnumEntry: 'FallingEdge'
                EnumEntry: 'RisingEdge'
            Enumeration: 'TriggerOverlap'
                EnumEntry: 'PreviousFrame'
                EnumEntry: 'Off'
            Float: 'TriggerDelayAbs'
        Command: 'AcquisitionStart'
        Command: 'AcquisitionStop'
        Command: 'AcquisitionAbort'
        Enumeration: 'AcquisitionMode'
            EnumEntry: 'Recorder'
            EnumEntry: 'MultiFrame'
            EnumEntry: 'SingleFrame'
            EnumEntry: 'Continuous'
        Integer: 'AcquisitionFrameCount'
        Converter: 'AcquisitionFrameRateAbs'
        Converter: 'AcquisitionFrameRateLimit'
        Integer: 'RecorderPreEventCount'
    Category: 'ImageMode'
        Integer: 'SensorWidth'
        Integer: 'SensorHeight'
        Integer: 'BinningHorizontal'
        Integer: 'BinningVertical'
    Category: 'ImageFormat'
        Integer: 'WidthMax'
        Integer: 'HeightMax'
        Enumeration: 'PixelFormat'
            EnumEntry: 'Mono14'
            EnumEntry: 'Mono12Packed'
            EnumEntry: 'Mono12'
            EnumEntry: 'Mono8'
        Integer: 'Width'
        Integer: 'Height'
        Integer: 'OffsetX'
        Integer: 'OffsetY'
        Integer: 'ImageSize'
    Category: 'Controls'
        Category: 'DSPSubregion'
            Integer: 'DSPSubregionLeft'
            Integer: 'DSPSubregionTop'
            Integer: 'DSPSubregionRight'
            Integer: 'DSPSubregionBottom'
        Category: 'Exposure'
            Enumeration: 'ExposureMode'
                EnumEntry: 'Timed'
            Float: 'ExposureTimeAbs'
            Enumeration: 'ExposureAuto'
                EnumEntry: 'other'
                EnumEntry: 'Continuous'
                EnumEntry: 'Once'
                EnumEntry: 'Off'
            Category: 'ExposureAutoControl'
                Integer: 'ExposureAutoTarget'
                Enumeration: 'ExposureAutoAlg'
                    EnumEntry: 'FitRange'
                    EnumEntry: 'Mean'
                Integer: 'ExposureAutoMin'
                Integer: 'ExposureAutoMax'
                Integer: 'ExposureAutoRate'
                Integer: 'ExposureAutoOutliers'
                Integer: 'ExposureAutoAdjustTol'
        Category: 'GainControl'
            Enumeration: 'GainSelector'
                EnumEntry: 'All'
            Float: 'Gain'
            Enumeration: 'GainAuto'
                EnumEntry: 'Continuous'
                EnumEntry: 'Once'
                EnumEntry: 'Off'
            Category: 'GainAutoControl'
                Integer: 'GainAutoTarget'
                Float: 'GainAutoMin'
                Float: 'GainAutoMax'
                Integer: 'GainAutoRate'
                Integer: 'GainAutoOutliers'
                Integer: 'GainAutoAdjustTol'
        Category: 'BlackLevelControl'
            Enumeration: 'BlackLevelSelector'
                EnumEntry: 'All'
        Float: 'Gamma'
        Category: 'Whitebalance'
            Category: 'BalanceWhiteAutoControl'
        Category: 'Iris'
            Enumeration: 'IrisMode'
                EnumEntry: 'DCIris'
                EnumEntry: 'PIrisManual'
                EnumEntry: 'PIrisAuto'
                EnumEntry: 'Disabled'
            Integer: 'IrisAutoTarget'
            Integer: 'IrisVideoLevel'
            Category: 'LensPIris'
                Integer: 'LensPIrisFrequency'
                Integer: 'LensPIrisNumSteps'
                Integer: 'LensPIrisPosition'
            Category: 'LensDCIris'
                Integer: 'LensDCDriveStrength'
        Category: 'DefectMask'
        Category: 'SubstrateVoltage'
            Integer: 'VsubValue'
        Category: 'ColorTransformationControl'
        Category: 'LUTControl'
            Category: 'LUTInfo'
    Category: 'IO'
        Category: 'SyncIn'
            Integer: 'SyncInLevels'
            Enumeration: 'SyncInSelector'
                EnumEntry: 'SyncIn2'
                EnumEntry: 'SyncIn1'
            Integer: 'SyncInGlitchFilter'
        Category: 'SyncOut'
            Integer: 'SyncOutLevels'
            Enumeration: 'SyncOutSelector'
                EnumEntry: 'SyncOut4'
                EnumEntry: 'SyncOut3'
                EnumEntry: 'SyncOut2'
                EnumEntry: 'SyncOut1'
            Enumeration: 'SyncOutSource'
                EnumEntry: 'Strobe1'
                EnumEntry: 'LineIn2'
                EnumEntry: 'LineIn1'
                EnumEntry: 'Acquiring'
                EnumEntry: 'Imaging'
                EnumEntry: 'FrameReadout'
                EnumEntry: 'Exposing'
                EnumEntry: 'FrameTriggerReady'
                EnumEntry: 'AcquisitionTriggerReady'
                EnumEntry: 'GPO'
            Enumeration: 'SyncOutPolarity'
                EnumEntry: 'Invert'
                EnumEntry: 'Normal'
        Category: 'Strobe'
            Enumeration: 'StrobeSource'
                EnumEntry: 'LineIn2'
                EnumEntry: 'LineIn1'
                EnumEntry: 'Acquiring'
                EnumEntry: 'FrameReadout'
                EnumEntry: 'Exposing'
                EnumEntry: 'FrameTrigger'
                EnumEntry: 'FrameTriggerReady'
                EnumEntry: 'AcquisitionTriggerReady'
            Enumeration: 'StrobeDurationMode'
                EnumEntry: 'Controlled'
                EnumEntry: 'Source'
            Integer: 'StrobeDelay'
            Integer: 'StrobeDuration'
    Category: 'EventControl'
        Enumeration: 'EventSelector'
            EnumEntry: 'FrameTriggerReady'
            EnumEntry: 'Line4FallingEdge'
            EnumEntry: 'Line4RisingEdge'
            EnumEntry: 'Line3FallingEdge'
            EnumEntry: 'Line3RisingEdge'
            EnumEntry: 'Line2FallingEdge'
            EnumEntry: 'Line2RisingEdge'
            EnumEntry: 'Line1FallingEdge'
            EnumEntry: 'Line1RisingEdge'
            EnumEntry: 'PtpSyncLocked'
            EnumEntry: 'PtpSyncLost'
            EnumEntry: 'AcquisitionRecordTrigger'
            EnumEntry: 'ExposureEnd'
            EnumEntry: 'FrameTrigger'
            EnumEntry: 'AcquisitionEnd'
            EnumEntry: 'AcquisitionStart'
        Enumeration: 'EventNotification'
            EnumEntry: 'On'
            EnumEntry: 'Off'
        Integer: 'EventsEnable1'
        Category: 'EventID'
            Integer: 'EventAcquisitionStart'
            Integer: 'EventAcquisitionEnd'
            Integer: 'EventFrameTrigger'
            Integer: 'EventExposureEnd'
            Integer: 'EventAcquisitionRecordTrigger'
            Integer: 'EventLine1RisingEdge'
            Integer: 'EventLine1FallingEdge'
            Integer: 'EventLine2RisingEdge'
            Integer: 'EventLine2FallingEdge'
            Integer: 'EventLine3RisingEdge'
            Integer: 'EventLine3FallingEdge'
            Integer: 'EventLine4RisingEdge'
            Integer: 'EventLine4FallingEdge'
            Integer: 'EventFrameTriggerReady'
            Integer: 'EventPtpSyncLost'
            Integer: 'EventPtpSyncLocked'
            Integer: 'EventOverflow'
            Integer: 'EventError'
    Category: 'SavedUserSets'
        Enumeration: 'UserSetSelector'
            EnumEntry: 'UserSet3'
            EnumEntry: 'UserSet2'
            EnumEntry: 'UserSet1'
            EnumEntry: 'Default'
        Command: 'UserSetLoad'
        Command: 'UserSetSave'
        Enumeration: 'UserSetDefaultSelector'
            EnumEntry: 'UserSet3'
            EnumEntry: 'UserSet2'
            EnumEntry: 'UserSet1'
            EnumEntry: 'Default'
